…
And the development version from [GitHub](https://github.com/) with:

``` r
# install.packages("devtools")
devtools::install_github("aparikh21/NYCTrash")
```

## Example

``` r
NYCTrash
#> # A tibble: 21,048 x 12
#>    year  month borough community_distr… refuse_tons_col… paper_tons_coll…
#>    <chr> <chr> <chr>   <chr>                       <dbl>            <dbl>
#>  1 1993  " 11" Manhat… 01                           625.            119. 
#>  2 1992  " 03" Manhat… 01                           726              NA  
#>  3 1995  " 08" Manhat… 01                           628.             82.4
#>  4 1991  " 08" Manhat… 01                           695.             NA  
#>  5 1995  " 09" Manhat… 01                           633.            117. 
#>  6 1996  " 04" Brookl… 07                          3479.            279. 
#>  7 2007  " 08" Brookl… 07                          3648.            515. 
#>  8 2012  " 01" Brookl… 07                          3157.            437. 
#>  9 2003  " 11" Brookl… 07                          3730.             NA  
#> 10 2004  " 08" Brookl… 07                          3696.            497. 
#> # … with 21,038 more rows, and 6 more variables: mpg_tons_collected <dbl>,
#> #   organic_tons_collected <dbl>, school_organics <dbl>, leaves_organics <dbl>,
#> #   xmas_tress <dbl>, borough_id <dbl>
…
